%YAML 1.1
%TAG !u! tag:unity3d.com,2011:
--- !u!1045 &1
EditorBuildSettings:
  m_ObjectHideFlags: 0
  serializedVersion: 2
  m_Scenes:
  - enabled: 1
    path: Assets/Scenes/StartScreen.unity
    guid: 09a907667f902b74abe8694f57609686
  - enabled: 1
    path: Assets/Scenes/Main.unity
    guid: d94e43f20f169e640b06f69a8c2be550
  - enabled: 1
    path: Assets/Scenes/End.unity
    guid: d420ce0cd753ccf41867e6cf90eb4de8
  m_configObjects: {}
